[
    {
        "id": 1, "url" : "start.jpg", "content": "Please choose continue to start the game",
        "direction": {
            "left": null, "right": null, "center": null, "continue": 2
        }
    },
    {
        "id": 2, "url" : "mountain2.jpg", "content": "You are starting to climb non-continue to continue your journey",
        "direction": {
            "left": null, "right": null, "center": null, "continue": 3
        }
    },
    {
        "id": 3, "url" : "mountain3.jpg", "content": "You are starting to climb non-continue to continue your journey",
        "direction": {
            "left": null, "right": null, "center": null, "continue": 4
        }
    },
    {
        "id": 4, "url" : "mountain4.jpg", "content": "You are starting to climb non-continue to continue your journey",
        "direction": {
            "left": null, "right": null, "center": null, "continue": 6
        }
    },
    {
        "id": 5, "url" : "mountain5.jpg", "content": "this is A, Left goes to C, right goes to the Top",
        "direction": {
            "left": 8, "right": 10, "center": null, "continue": 0
        }
    },
    {
        "id": 6, "url" : "mountain6.jpg", "content" : "The path leaves you with a choice, the left path goes back, the middle to the picture of the house, the right goes up higher" , 
        "direction": {
            "left": 4, "right": 8, "center": 7, "continue": 0
        }
    },
    {
        "id": 7, "url" : "mountain7.jpg", "content": "You are standing looking at the houses, but often choose to go back (left) and continue the journey",
        "direction": {
            "left": 6, "right": null, "center": null, "continue": 0
        }
    },
    {
        "id": 8, "url" : "mountain8.jpg", "content": "You are near the top, this is C.  left goes back down, middle Goes to B, right goes to the top",
        "direction": {
            "left": 6, "right": 5, "center": 9, "continue": 0
        }
    },
    {
        "id": 9, "url" : "mountain9.jpg", "content": "This is B.  Left goes to the top, right goes to C",
        "direction": {
            "left": 10, "right": 8, "center": null, "continue": 0
        }
    },
    {
        "id": 10, "url" : "mountain10.jpg", "content": "You have reached the Mountain peek, it now forms a circle, left goes to A and right goes to B",
        "direction": {
            "left": 5, "right": 9, "center": null, "continue": 0
        }
    }
]